{
  "results": [
    {
      "popularity": 126.33,
      "vote_count": 203,
      "video": false,
      "poster_path": "/jHo2M1OiH9Re33jYtUQdfzPeUkx.jpg",
      "id": 385103,
      "adult": false,
      "backdrop_path": "/fKtYXUhX5fxMxzQfyUcQW9Shik6.jpg",
      "original_language": "en",
      "original_title": "Scoob!",
      "genre_ids": [
        12,
        16,
        35,
        9648,
        10751
      ],
      "title": "Scoob!",
      "vote_average": 7.8,
      "overview": "In Scooby-Doo’s greatest adventure yet, see the never-before told story of how lifelong friends Scooby and Shaggy first met and how they joined forces with young detectives Fred, Velma, and Daphne to form the famous Mystery Inc. Now, with hundreds of cases solved, Scooby and the gang face their biggest, toughest mystery ever: an evil plot to unleash the ghost dog Cerberus upon the world. As they race to stop this global “dogpocalypse,” the gang discovers that Scooby has a secret legacy and an epic destiny greater than anyone ever imagined.",
      "release_date": "2020-07-08"
    },
    {
      "popularity": 91.862,
      "vote_count": 8477,
      "video": false,
      "poster_path": "/7IiTTgloJzvGI1TAYymCfbfl3vT.jpg",
      "id": 496243,
      "adult": false,
      "backdrop_path": "/ApiBzeaa95TNYliSbQ8pJv4Fje7.jpg",
      "original_language": "ko",
      "original_title": "기생충",
      "genre_ids": [
        35,
        18,
        53
      ],
      "title": "Parasite",
      "vote_average": 8.5,
      "overview": "All unemployed, Ki-taek's family takes peculiar interest in the wealthy and glamorous Parks for their livelihood until they get entangled in an unexpected incident.",
      "release_date": "2019-05-30"
    },
    {
      "popularity": 74.795,
      "vote_count": 193,
      "video": false,
      "poster_path": "/hPkqY2EMqWUnFEoedukilIUieVG.jpg",
      "id": 531876,
      "adult": false,
      "backdrop_path": "/n1RohH2VoK1CdVI2fXvcP19dSlm.jpg",
      "original_language": "en",
      "original_title": "The Outpost",
      "genre_ids": [
        28,
        18,
        36,
        10752
      ],
      "title": "The Outpost",
      "vote_average": 6.8,
      "overview": "A small unit of U.S. soldiers, alone at the remote Combat Outpost Keating, located deep in the valley of three mountains in Afghanistan, battles to defend against an overwhelming force of Taliban fighters in a coordinated attack. The Battle of Kamdesh, as it was known, was the bloodiest American engagement of the Afghan War in 2009 and Bravo Troop 3-61 CAV became one of the most decorated units of the 19-year conflict.",
      "release_date": "2020-06-24"
    },
    {
      "popularity": 72.859,
      "vote_count": 13,
      "video": false,
      "poster_path": "/7S9RvfMBWSTlUZ4VbxDY7oLeenk.jpg",
      "id": 581392,
      "adult": false,
      "backdrop_path": "/oamFZb8Gj5NJ24OLDd07wyNVX4N.jpg",
      "original_language": "ko",
      "original_title": "반도",
      "genre_ids": [
        28,
        27,
        53
      ],
      "title": "Peninsula",
      "vote_average": 6.3,
      "overview": "Peninsula takes place four years after Train to Busan as the characters fight to escape the land that is in ruins due to an unprecedented disaster.",
      "release_date": "2020-07-15"
    },
    {
      "popularity": 57.888,
      "vote_count": 5,
      "video": false,
      "poster_path": "/27eA9xGba61LtKr7gJRnhtDDgEP.jpg",
      "id": 651586,
      "adult": false,
      "backdrop_path": "/1iEDKZHREDetZcOoqioZewcHOw9.jpg",
      "original_language": "es",
      "original_title": "Superagente Makey",
      "genre_ids": [
        28,
        35
      ],
      "title": "Superagente Makey",
      "vote_average": 4.2,
      "overview": "Makey is a humble police officer that, unexpectedly, gets caught in the middle of a dangerous international drug operation in the Costa del Sol, Spain.",
      "release_date": "2020-07-17"
    },
    {
      "popularity": 60.731,
      "vote_count": 19,
      "video": false,
      "poster_path": "/jBeL6pPUPo0wnyTmiuxPegcibPf.jpg",
      "id": 608195,
      "adult": false,
      "backdrop_path": "/8LI4OEQGY2DIBTQQeRjYVKfL9Dl.jpg",
      "original_language": "en",
      "original_title": "Ghosts of War",
      "genre_ids": [
        14,
        27,
        53,
        10752
      ],
      "title": "Ghosts of War",
      "vote_average": 4.4,
      "overview": "A group of World War II American soldiers encounter a supernatural enemy as they occupy a French castle previously under Nazi control.",
      "release_date": "2020-07-03"
    },
    {
      "popularity": 60.943,
      "vote_count": 2655,
      "video": false,
      "poster_path": "/f4aul3FyD3jv3v4bul1IrkWZvzq.jpg",
      "id": 508439,
      "adult": false,
      "backdrop_path": "/xFxk4vnirOtUxpOEWgA1MCRfy6J.jpg",
      "original_language": "en",
      "original_title": "Onward",
      "genre_ids": [
        12,
        16,
        35,
        14,
        10751
      ],
      "title": "Onward",
      "vote_average": 7.9,
      "overview": "In a suburban fantasy world, two teenage elf brothers embark on an extraordinary quest to discover if there is still a little magic left out there.",
      "release_date": "2020-02-29"
    },
    {
      "popularity": 67.423,
      "vote_count": 4,
      "video": false,
      "poster_path": "/xqbQtMffXwa3oprse4jiHBMBvdW.jpg",
      "id": 601844,
      "adult": false,
      "backdrop_path": "/qTrpw2ZUvN7ywUu1kieEsvNDrgQ.jpg",
      "original_language": "en",
      "original_title": "Becky",
      "genre_ids": [
        28,
        27,
        53
      ],
      "title": "Becky",
      "vote_average": 4.9,
      "overview": "A teenager's weekend at a lake house with her father takes a turn for the worse when a group of convicts wreaks havoc on their lives.",
      "release_date": "2020-07-23"
    },
    {
      "popularity": 54.502,
      "vote_count": 679,
      "video": false,
      "poster_path": "/tI8ocADh22GtQFV28vGHaBZVb0U.jpg",
      "id": 475430,
      "adult": false,
      "backdrop_path": "/o0F8xAt8YuEm5mEZviX5pEFC12y.jpg",
      "original_language": "en",
      "original_title": "Artemis Fowl",
      "genre_ids": [
        12,
        14,
        878,
        10751
      ],
      "title": "Artemis Fowl",
      "vote_average": 5.9,
      "overview": "Artemis Fowl is a 12-year-old genius and descendant of a long line of criminal masterminds. He soon finds himself in an epic battle against a race of powerful underground fairies who may be behind his father's disappearance.",
      "release_date": "2020-06-12"
    },
    {
      "popularity": 42.338,
      "vote_count": 5,
      "video": false,
      "poster_path": "/zQFjMmE3K9AX5QrBL1SXIxYQ9jz.jpg",
      "id": 579583,
      "adult": false,
      "backdrop_path": "/5rwcd24GGltKiqdPT4G2dmchLr9.jpg",
      "original_language": "en",
      "original_title": "The King of Staten Island",
      "genre_ids": [
        35,
        18
      ],
      "title": "The King of Staten Island",
      "vote_average": 7.9,
      "overview": "Scott has been a case of arrested development ever since his firefighter father died when he was seven. He’s now reached his mid-20s having achieved little, chasing a dream of becoming a tattoo artist that seems far out of reach. As his ambitious younger sister heads off to college, Scott is still living with his exhausted ER nurse mother and spends his days smoking weed, hanging with the guys — Oscar, Igor and Richie — and secretly hooking up with his childhood friend Kelsey. But when his mother starts dating a loudmouth firefighter named Ray, it sets off a chain of events that will force Scott to grapple with his grief and take his first tentative steps toward moving forward in life.",
      "release_date": "2020-07-22"
    },
    {
      "popularity": 60.025,
      "vote_count": 66,
      "video": false,
      "poster_path": "/3wZ0gxLqsPleneFSTZILmM3BE8Q.jpg",
      "id": 539181,
      "adult": false,
      "backdrop_path": "/vpUUznNzW85xo02H16RaSxRNS1.jpg",
      "original_language": "en",
      "original_title": "Relic",
      "genre_ids": [
        18,
        27
      ],
      "title": "Relic",
      "vote_average": 6.3,
      "overview": "When Edna—the elderly and widowed matriarch of the family—goes missing, her daughter and granddaughter travel to their remote family home to find her. Soon after her return, they start to discover a sinister presence haunting the house and taking control of Edna.",
      "release_date": "2020-07-03"
    },
    {
      "popularity": 59.008,
      "vote_count": 1,
      "video": false,
      "poster_path": "/cgRTJ8d5MlwSwSsv4WwPTh4Atan.jpg",
      "id": 587496,
      "adult": false,
      "backdrop_path": "/2gBMBfmQvHeOQQ5PiKiuxVdGs77.jpg",
      "original_language": "en",
      "original_title": "The Rental",
      "genre_ids": [
        27,
        53
      ],
      "title": "The Rental",
      "vote_average": 7,
      "overview": "Two couples rent a vacation home for what should be a celebratory weekend get-away.",
      "release_date": "2020-07-23"
    },
    {
      "popularity": 37.125,
      "vote_count": 0,
      "video": false,
      "poster_path": "/vEoMgrVDHJ39KUt0QO7p5AYXRnS.jpg",
      "id": 672699,
      "adult": false,
      "backdrop_path": "/pupHvErx3OEgmdmwRIplOIMiFoh.jpg",
      "original_language": "en",
      "original_title": "Banksy and the Rise of Outlaw Art",
      "genre_ids": [
        99
      ],
      "title": "Banksy and the Rise of Outlaw Art",
      "vote_average": 0,
      "overview": "Banksy, the world's most infamous street artist, whose political art, criminal stunts and daring invasions have outraged the establishment for over two decades. Featuring rare interviews with Banksy, this is the story of how an outlaw artist led a revolutionary new movement and built a multi-million dollar empire, while his identity remained shrouded in mystery.",
      "release_date": "2020-07-23"
    },
    {
      "popularity": 55.186,
      "vote_count": 17444,
      "video": false,
      "poster_path": "/f89U3ADr1oiB1s9GkdPOEpXUk5H.jpg",
      "id": 603,
      "adult": false,
      "backdrop_path": "/ByDf0zjLSumz1MP1cDEo2JWVtU.jpg",
      "original_language": "en",
      "original_title": "The Matrix",
      "genre_ids": [
        28,
        878
      ],
      "title": "The Matrix",
      "vote_average": 8.1,
      "overview": "Set in the 22nd century, The Matrix tells the story of a computer hacker who joins a group of underground insurgents fighting the vast and powerful computers who now rule the earth.",
      "release_date": "1999-03-30"
    },
    {
      "popularity": 33.014,
      "vote_count": 1996,
      "video": false,
      "poster_path": "/kTQ3J8oTTKofAVLYnds2cHUz9KO.jpg",
      "id": 522938,
      "adult": false,
      "backdrop_path": "/3IHqwENGxOb36Jgeot4XHs3BTxz.jpg",
      "original_language": "en",
      "original_title": "Rambo: Last Blood",
      "genre_ids": [
        28,
        18,
        53
      ],
      "title": "Rambo: Last Blood",
      "vote_average": 6.3,
      "overview": "After fighting his demons for decades, John Rambo now lives in peace on his family ranch in Arizona, but his rest is interrupted when Gabriela, the granddaughter of his housekeeper María, disappears after crossing the border into Mexico to meet her biological father. Rambo, who has become a true father figure for Gabriela over the years, undertakes a desperate and dangerous journey to find her.",
      "release_date": "2019-09-19"
    },
    {
      "popularity": 47.004,
      "vote_count": 628,
      "video": false,
      "poster_path": "/hJ6YEbrjFvToa5c7IiUqILoB6Je.jpg",
      "id": 552178,
      "adult": false,
      "backdrop_path": "/4ZSlTfkHtgTTupCaLbseXQQzZha.jpg",
      "original_language": "en",
      "original_title": "Dark Waters",
      "genre_ids": [
        18,
        53
      ],
      "title": "Dark Waters",
      "vote_average": 7.4,
      "overview": "A tenacious attorney uncovers a dark secret that connects a growing number of unexplained deaths to one of the world's largest corporations. In the process, he risks everything — his future, his family, and his own life — to expose the truth.",
      "release_date": "2019-11-22"
    },
    {
      "popularity": 36.464,
      "vote_count": 1116,
      "video": false,
      "poster_path": "/wxPhn4ef1EAo5njxwBkAEVrlJJG.jpg",
      "id": 514847,
      "adult": false,
      "backdrop_path": "/naXUDz0VGK7aaPlEpsuYW8kNVsr.jpg",
      "original_language": "en",
      "original_title": "The Hunt",
      "genre_ids": [
        28,
        27,
        53
      ],
      "title": "The Hunt",
      "vote_average": 6.7,
      "overview": "Twelve strangers wake up in a clearing. They don't know where they are—or how they got there. In the shadow of a dark internet conspiracy theory, ruthless elitists gather at a remote location to hunt humans for sport. But their master plan is about to be derailed when one of the hunted turns the tables on her pursuers.",
      "release_date": "2020-03-11"
    },
    {
      "popularity": 49.29,
      "vote_count": 399,
      "video": false,
      "poster_path": "/uHpHzbHLSsVmAuuGuQSpyVDZmDc.jpg",
      "id": 556678,
      "adult": false,
      "backdrop_path": "/5GbkL9DDRzq3A21nR7Gkv6cFGjq.jpg",
      "original_language": "en",
      "original_title": "Emma.",
      "genre_ids": [
        35,
        18,
        10749
      ],
      "title": "Emma.",
      "vote_average": 7,
      "overview": "In 1800s England, a well-meaning but selfish young woman meddles in the love lives of her friends.",
      "release_date": "2020-02-13"
    },
    {
      "popularity": 30.906,
      "vote_count": 0,
      "video": false,
      "poster_path": "/mQEuD36twhd13iB5otvLsEg8OqS.jpg",
      "id": 657350,
      "adult": false,
      "backdrop_path": null,
      "original_language": "ja",
      "original_title": "コンフィデンスマンJP プリンセス編",
      "genre_ids": [
        35,
        9648
      ],
      "title": "The Confidence Man JP: Princess",
      "vote_average": 0,
      "overview": "Set in Langkawi, Malaysia, professional scammers Dako (Masami Nagasawa), Boku-chan (Masahiro Higashide), and Richard (Fumiyo Kohinata) target the Fuu Family for their next heist. Raymond Fuu, who was the head of the Fuu Family, passed away and he left behind 10 trillion yen. Dako, Boku-chan and Richard scheme to gain the inordinate inheritance. --asianwiki",
      "release_date": "2020-07-23"
    },
    {
      "popularity": 28.309,
      "vote_count": 4,
      "video": false,
      "poster_path": "/ieNGttYsxunAANK9LRZa4LdkEqi.jpg",
      "id": 560204,
      "adult": false,
      "backdrop_path": "/1Q3cxQmZcU7lqwWlruKL2yCC5j2.jpg",
      "original_language": "en",
      "original_title": "Arkansas",
      "genre_ids": [
        80,
        18,
        53
      ],
      "title": "Arkansas",
      "vote_average": 6,
      "overview": "Kyle and Swin live by the orders of an Arkansas-based drug kingpin named Frog, whom they've never met. But when a deal goes horribly wrong, the consequences are deadly.",
      "release_date": "2020-07-16"
    }
  ],
  "page": 1,
  "total_results": 615,
  "dates": {
    "maximum": "2020-07-29",
    "minimum": "2020-06-11"
  },
  "total_pages": 31
}
